%YAML 1.1
%TAG !u! tag:unity3d.com,2011:
--- !u!1001 &3427818180684791664
PrefabInstance:
  m_ObjectHideFlags: 0
  serializedVersion: 2
  m_Modification:
    m_TransformParent: {fileID: 0}
    m_Modifications:
    - target: {fileID: 8984685334718684801, guid: 187753dcda246444faf7375f3a6174c0, type: 3}
      propertyPath: m_AnchorMax.y
      value: 0
      objectReference: {fileID: 0}
    - target: {fileID: 8984685334718684801, guid: 187753dcda246444faf7375f3a6174c0, type: 3}
      propertyPath: m_AnchorMin.y
      value: 0
      objectReference: {fileID: 0}
    - target: {fileID: 8984685334718684801, guid: 187753dcda246444faf7375f3a6174c0, type: 3}
      propertyPath: m_SizeDelta.x
      value: 0
      objectReference: {fileID: 0}
    - target: {fileID: 8984685334718684801, guid: 187753dcda246444faf7375f3a6174c0, type: 3}
      propertyPath: m_AnchoredPosition.x
      value: 0
      objectReference: {fileID: 0}
    - target: {fileID: 8984685334718684801, guid: 187753dcda246444faf7375f3a6174c0, type: 3}
      propertyPath: m_AnchoredPosition.y
      value: 0
      objectReference: {fileID: 0}
    - target: {fileID: 8984685334852382614, guid: 187753dcda246444faf7375f3a6174c0, type: 3}
      propertyPath: m_AnchorMax.y
      value: 0
      objectReference: {fileID: 0}
    - target: {fileID: 8984685334852382614, guid: 187753dcda246444faf7375f3a6174c0, type: 3}
      propertyPath: m_AnchorMin.y
      value: 0
      objectReference: {fileID: 0}
    - target: {fileID: 8984685334852382614, guid: 187753dcda246444faf7375f3a6174c0, type: 3}
      propertyPath: m_SizeDelta.x
      value: 0
      objectReference: {fileID: 0}
    - target: {fileID: 8984685334852382614, guid: 187753dcda246444faf7375f3a6174c0, type: 3}
      propertyPath: m_SizeDelta.y
      value: 0
      objectReference: {fileID: 0}
    - target: {fileID: 8984685334852382614, guid: 187753dcda246444faf7375f3a6174c0, type: 3}
      propertyPath: m_AnchoredPosition.x
      value: 0
      objectReference: {fileID: 0}
    - target: {fileID: 8984685334852382614, guid: 187753dcda246444faf7375f3a6174c0, type: 3}
      propertyPath: m_AnchoredPosition.y
      value: 0
      objectReference: {fileID: 0}
    - target: {fileID: 8984685334876225351, guid: 187753dcda246444faf7375f3a6174c0, type: 3}
      propertyPath: m_AnchorMax.y
      value: 0
      objectReference: {fileID: 0}
    - target: {fileID: 8984685334876225351, guid: 187753dcda246444faf7375f3a6174c0, type: 3}
      propertyPath: m_AnchorMin.y
      value: 0
      objectReference: {fileID: 0}
    - target: {fileID: 8984685334876225351, guid: 187753dcda246444faf7375f3a6174c0, type: 3}
      propertyPath: m_SizeDelta.x
      value: 0
      objectReference: {fileID: 0}
    - target: {fileID: 8984685334876225351, guid: 187753dcda246444faf7375f3a6174c0, type: 3}
      propertyPath: m_SizeDelta.y
      value: 0
      objectReference: {fileID: 0}
    - target: {fileID: 8984685334876225351, guid: 187753dcda246444faf7375f3a6174c0, type: 3}
      propertyPath: m_AnchoredPosition.x
      value: 0
      objectReference: {fileID: 0}
    - target: {fileID: 8984685334876225351, guid: 187753dcda246444faf7375f3a6174c0, type: 3}
      propertyPath: m_AnchoredPosition.y
      value: 0
      objectReference: {fileID: 0}
    - target: {fileID: 8984685335147115078, guid: 187753dcda246444faf7375f3a6174c0, type: 3}
      propertyPath: m_SizeDelta.y
      value: 0
      objectReference: {fileID: 0}
    - target: {fileID: 8984685335605876192, guid: 187753dcda246444faf7375f3a6174c0, type: 3}
      propertyPath: m_Name
      value: Wrong Push
      objectReference: {fileID: 0}
    - target: {fileID: 8984685335605876193, guid: 187753dcda246444faf7375f3a6174c0, type: 3}
      propertyPath: m_RootOrder
      value: 0
      objectReference: {fileID: 0}
    - target: {fileID: 8984685335605876193, guid: 187753dcda246444faf7375f3a6174c0, type: 3}
      propertyPath: m_SizeDelta.y
      value: 0
      objectReference: {fileID: 0}
    - target: {fileID: 8984685335605876193, guid: 187753dcda246444faf7375f3a6174c0, type: 3}
      propertyPath: m_LocalPosition.x
      value: 0
      objectReference: {fileID: 0}
    - target: {fileID: 8984685335605876193, guid: 187753dcda246444faf7375f3a6174c0, type: 3}
      propertyPath: m_LocalPosition.y
      value: 0
      objectReference: {fileID: 0}
    - target: {fileID: 8984685335605876193, guid: 187753dcda246444faf7375f3a6174c0, type: 3}
      propertyPath: m_LocalEulerAnglesHint.x
      value: 0
      objectReference: {fileID: 0}
    - target: {fileID: 8984685335605876193, guid: 187753dcda246444faf7375f3a6174c0, type: 3}
      propertyPath: m_LocalEulerAnglesHint.y
      value: 0
      objectReference: {fileID: 0}
    - target: {fileID: 8984685335605876193, guid: 187753dcda246444faf7375f3a6174c0, type: 3}
      propertyPath: m_LocalEulerAnglesHint.z
      value: 0
      objectReference: {fileID: 0}
    - target: {fileID: 8984685335637185081, guid: 187753dcda246444faf7375f3a6174c0, type: 3}
      propertyPath: m_AnchorMax.y
      value: 0
      objectReference: {fileID: 0}
    - target: {fileID: 8984685335637185081, guid: 187753dcda246444faf7375f3a6174c0, type: 3}
      propertyPath: m_AnchorMin.y
      value: 0
      objectReference: {fileID: 0}
    - target: {fileID: 8984685335637185081, guid: 187753dcda246444faf7375f3a6174c0, type: 3}
      propertyPath: m_SizeDelta.x
      value: 0
      objectReference: {fileID: 0}
    - target: {fileID: 8984685335637185081, guid: 187753dcda246444faf7375f3a6174c0, type: 3}
      propertyPath: m_SizeDelta.y
      value: 0
      objectReference: {fileID: 0}
    - target: {fileID: 8984685335637185081, guid: 187753dcda246444faf7375f3a6174c0, type: 3}
      propertyPath: m_AnchoredPosition.x
      value: 0
      objectReference: {fileID: 0}
    - target: {fileID: 8984685335637185081, guid: 187753dcda246444faf7375f3a6174c0, type: 3}
      propertyPath: m_AnchoredPosition.y
      value: 0
      objectReference: {fileID: 0}
    - target: {fileID: 8984685335776795365, guid: 187753dcda246444faf7375f3a6174c0, type: 3}
      propertyPath: m_AnchorMax.y
      value: 0
      objectReference: {fileID: 0}
    - target: {fileID: 8984685335776795365, guid: 187753dcda246444faf7375f3a6174c0, type: 3}
      propertyPath: m_AnchorMin.y
      value: 0
      objectReference: {fileID: 0}
    - target: {fileID: 8984685335776795365, guid: 187753dcda246444faf7375f3a6174c0, type: 3}
      propertyPath: m_SizeDelta.x
      value: 0
      objectReference: {fileID: 0}
    - target: {fileID: 8984685335776795365, guid: 187753dcda246444faf7375f3a6174c0, type: 3}
      propertyPath: m_SizeDelta.y
      value: 0
      objectReference: {fileID: 0}
    - target: {fileID: 8984685335776795365, guid: 187753dcda246444faf7375f3a6174c0, type: 3}
      propertyPath: m_AnchoredPosition.x
      value: 0
      objectReference: {fileID: 0}
    - target: {fileID: 8984685335776795365, guid: 187753dcda246444faf7375f3a6174c0, type: 3}
      propertyPath: m_AnchoredPosition.y
      value: 0
      objectReference: {fileID: 0}
    - target: {fileID: 8984685336295392812, guid: 187753dcda246444faf7375f3a6174c0, type: 3}
      propertyPath: m_AnchorMax.y
      value: 0
      objectReference: {fileID: 0}
    - target: {fileID: 8984685336295392812, guid: 187753dcda246444faf7375f3a6174c0, type: 3}
      propertyPath: m_AnchorMin.y
      value: 0
      objectReference: {fileID: 0}
    - target: {fileID: 8984685336295392812, guid: 187753dcda246444faf7375f3a6174c0, type: 3}
      propertyPath: m_SizeDelta.x
      value: 0
      objectReference: {fileID: 0}
    - target: {fileID: 8984685336295392812, guid: 187753dcda246444faf7375f3a6174c0, type: 3}
      propertyPath: m_SizeDelta.y
      value: 0
      objectReference: {fileID: 0}
    - target: {fileID: 8984685336295392812, guid: 187753dcda246444faf7375f3a6174c0, type: 3}
      propertyPath: m_AnchoredPosition.x
      value: 0
      objectReference: {fileID: 0}
    - target: {fileID: 8984685336295392812, guid: 187753dcda246444faf7375f3a6174c0, type: 3}
      propertyPath: m_AnchoredPosition.y
      value: 0
      objectReference: {fileID: 0}
    - target: {fileID: 8984685336486293146, guid: 187753dcda246444faf7375f3a6174c0, type: 3}
      propertyPath: m_AnchorMax.y
      value: 0
      objectReference: {fileID: 0}
    - target: {fileID: 8984685336486293146, guid: 187753dcda246444faf7375f3a6174c0, type: 3}
      propertyPath: m_AnchorMin.y
      value: 0
      objectReference: {fileID: 0}
    - target: {fileID: 8984685336486293146, guid: 187753dcda246444faf7375f3a6174c0, type: 3}
      propertyPath: m_SizeDelta.x
      value: 0
      objectReference: {fileID: 0}
    - target: {fileID: 8984685336486293146, guid: 187753dcda246444faf7375f3a6174c0, type: 3}
      propertyPath: m_SizeDelta.y
      value: 0
      objectReference: {fileID: 0}
    - target: {fileID: 8984685336486293146, guid: 187753dcda246444faf7375f3a6174c0, type: 3}
      propertyPath: m_AnchoredPosition.x
      value: 0
      objectReference: {fileID: 0}
    - target: {fileID: 8984685336486293146, guid: 187753dcda246444faf7375f3a6174c0, type: 3}
      propertyPath: m_AnchoredPosition.y
      value: 0
      objectReference: {fileID: 0}
    - target: {fileID: 8984685336495372788, guid: 187753dcda246444faf7375f3a6174c0, type: 3}
      propertyPath: m_text
      value: 5343
      objectReference: {fileID: 0}
    - target: {fileID: 8984685336495372791, guid: 187753dcda246444faf7375f3a6174c0, type: 3}
      propertyPath: m_AnchorMax.y
      value: 0
      objectReference: {fileID: 0}
    - target: {fileID: 8984685336495372791, guid: 187753dcda246444faf7375f3a6174c0, type: 3}
      propertyPath: m_AnchorMin.y
      value: 0
      objectReference: {fileID: 0}
    - target: {fileID: 8984685336495372791, guid: 187753dcda246444faf7375f3a6174c0, type: 3}
      propertyPath: m_SizeDelta.x
      value: 0
      objectReference: {fileID: 0}
    - target: {fileID: 8984685336495372791, guid: 187753dcda246444faf7375f3a6174c0, type: 3}
      propertyPath: m_SizeDelta.y
      value: 0
      objectReference: {fileID: 0}
    - target: {fileID: 8984685336495372791, guid: 187753dcda246444faf7375f3a6174c0, type: 3}
      propertyPath: m_AnchoredPosition.x
      value: 0
      objectReference: {fileID: 0}
    - target: {fileID: 8984685336495372791, guid: 187753dcda246444faf7375f3a6174c0, type: 3}
      propertyPath: m_AnchoredPosition.y
      value: 0
      objectReference: {fileID: 0}
    - target: {fileID: 8984685336688731890, guid: 187753dcda246444faf7375f3a6174c0, type: 3}
      propertyPath: m_AnchorMax.y
      value: 0
      objectReference: {fileID: 0}
    - target: {fileID: 8984685336688731890, guid: 187753dcda246444faf7375f3a6174c0, type: 3}
      propertyPath: m_AnchorMin.y
      value: 0
      objectReference: {fileID: 0}
    - target: {fileID: 8984685336688731890, guid: 187753dcda246444faf7375f3a6174c0, type: 3}
      propertyPath: m_SizeDelta.x
      value: 0
      objectReference: {fileID: 0}
    - target: {fileID: 8984685336688731890, guid: 187753dcda246444faf7375f3a6174c0, type: 3}
      propertyPath: m_AnchoredPosition.x
      value: 0
      objectReference: {fileID: 0}
    - target: {fileID: 8984685336688731890, guid: 187753dcda246444faf7375f3a6174c0, type: 3}
      propertyPath: m_AnchoredPosition.y
      value: 0
      objectReference: {fileID: 0}
    m_RemovedComponents:
    - {fileID: 8984685335605876206, guid: 187753dcda246444faf7375f3a6174c0, type: 3}
  m_SourcePrefab: {fileID: 100100000, guid: 187753dcda246444faf7375f3a6174c0, type: 3}
--- !u!114 &5990365627899101236 stripped
MonoBehaviour:
  m_CorrespondingSourceObject: {fileID: 8984685334876225348, guid: 187753dcda246444faf7375f3a6174c0, type: 3}
  m_PrefabInstance: {fileID: 3427818180684791664}
  m_PrefabAsset: {fileID: 0}
  m_GameObject: {fileID: 0}
  m_Enabled: 1
  m_EditorHideFlags: 0
  m_Script: {fileID: 11500000, guid: f4688fdb7df04437aeb418b961361dc5, type: 3}
  m_Name: 
  m_EditorClassIdentifier: 
--- !u!1 &5990365627957947024 stripped
GameObject:
  m_CorrespondingSourceObject: {fileID: 8984685335605876192, guid: 187753dcda246444faf7375f3a6174c0, type: 3}
  m_PrefabInstance: {fileID: 3427818180684791664}
  m_PrefabAsset: {fileID: 0}
--- !u!114 &4857724113802072050
MonoBehaviour:
  m_ObjectHideFlags: 0
  m_CorrespondingSourceObject: {fileID: 0}
  m_PrefabInstance: {fileID: 0}
  m_PrefabAsset: {fileID: 0}
  m_GameObject: {fileID: 5990365627957947024}
  m_Enabled: 1
  m_EditorHideFlags: 0
  m_Script: {fileID: 11500000, guid: 11818f5687409ec469f46b67621cc009, type: 3}
  m_Name: 
  m_EditorClassIdentifier: 
  _lableField: {fileID: 5990365627899101236}
  _variants:
  - Cmpany Name
  - Campany Name
  - Company Nme
  - Campagin Name
  - Name Company
