{
    "name": "ICD.Engine.Core.Editor",
    "rootNamespace": "ICD.Engine.Core.Editor",
    "references": [
        "GUID:c465d742ed934a949804b3c2a4879110"
    ],
    "includePlatforms": [
        "Editor"
    ],
    "excludePlatforms": [],
    "allowUnsafeCode": false,
    "overrideReferences": false,
    "precompiledReferences": [],
    "autoReferenced": true,
    "defineConstraints": [],
    "versionDefines": [],
    "noEngineReferences": false
}