%YAML 1.1
%TAG !u! tag:unity3d.com,2011:
--- !u!114 &11400000
MonoBehaviour:
  m_ObjectHideFlags: 0
  m_CorrespondingSourceObject: {fileID: 0}
  m_PrefabInstance: {fileID: 0}
  m_PrefabAsset: {fileID: 0}
  m_GameObject: {fileID: 0}
  m_Enabled: 1
  m_EditorHideFlags: 0
  m_Script: {fileID: 11500000, guid: 77221a2907d617e49bda66a8b44eaec0, type: 3}
  m_Name: Game Code Generator
  m_EditorClassIdentifier: 
  _difficulty: 0.7500001
  _codeTypeWeightsByDifficulty:
  - {fileID: 11400000, guid: 2feae91d353fb1542ba6e1a81aa34868, type: 2}
  - {fileID: 11400000, guid: d58ea3f27fd38e746a9cc1417393a615, type: 2}
  _codeLengthWeightsByDifficulty:
  - {fileID: 11400000, guid: 9d37b4380b85c0e4a94b42210387a430, type: 2}
  - {fileID: 11400000, guid: c5a31ab96258313468af7e638d7a5037, type: 2}
  - {fileID: 11400000, guid: 85bd1e26dfd31494180b81b12afe3d8f, type: 2}
  _expirationDurationByDifficulty:
    serializedVersion: 2
    m_Curve:
    - serializedVersion: 3
      time: 0
      value: 5
      inSlope: 0
      outSlope: 0
      tangentMode: 34
      weightedMode: 0
      inWeight: 0
      outWeight: 0
    m_PreInfinity: 2
    m_PostInfinity: 2
    m_RotationOrder: 4
  _symbolsSet: {fileID: 11400000, guid: f181b027fb000884682298e0f3cab24c, type: 2}
