%YAML 1.1
%TAG !u! tag:unity3d.com,2011:
--- !u!1001 &2516563060586383988
PrefabInstance:
  m_ObjectHideFlags: 0
  serializedVersion: 2
  m_Modification:
    m_TransformParent: {fileID: 0}
    m_Modifications:
    - target: {fileID: 1566485701280239777, guid: 4342fceea403c2640bb03b093b2fb9fc, type: 3}
      propertyPath: m_Name
      value: Fine
      objectReference: {fileID: 0}
    - target: {fileID: 1566485701280239790, guid: 4342fceea403c2640bb03b093b2fb9fc, type: 3}
      propertyPath: m_RootOrder
      value: 0
      objectReference: {fileID: 0}
    - target: {fileID: 1566485701280239790, guid: 4342fceea403c2640bb03b093b2fb9fc, type: 3}
      propertyPath: m_LocalPosition.x
      value: 0
      objectReference: {fileID: 0}
    - target: {fileID: 1566485701280239790, guid: 4342fceea403c2640bb03b093b2fb9fc, type: 3}
      propertyPath: m_LocalPosition.y
      value: 0
      objectReference: {fileID: 0}
    - target: {fileID: 1566485701280239790, guid: 4342fceea403c2640bb03b093b2fb9fc, type: 3}
      propertyPath: m_LocalEulerAnglesHint.x
      value: 0
      objectReference: {fileID: 0}
    - target: {fileID: 1566485701280239790, guid: 4342fceea403c2640bb03b093b2fb9fc, type: 3}
      propertyPath: m_LocalEulerAnglesHint.y
      value: 0
      objectReference: {fileID: 0}
    - target: {fileID: 1566485701280239790, guid: 4342fceea403c2640bb03b093b2fb9fc, type: 3}
      propertyPath: m_LocalEulerAnglesHint.z
      value: 0
      objectReference: {fileID: 0}
    - target: {fileID: 1566485702796812478, guid: 4342fceea403c2640bb03b093b2fb9fc, type: 3}
      propertyPath: m_SizeDelta.x
      value: 0
      objectReference: {fileID: 0}
    - target: {fileID: 1566485702796812478, guid: 4342fceea403c2640bb03b093b2fb9fc, type: 3}
      propertyPath: m_SizeDelta.y
      value: 0
      objectReference: {fileID: 0}
    - target: {fileID: 1566485702796812479, guid: 4342fceea403c2640bb03b093b2fb9fc, type: 3}
      propertyPath: m_fontColor.b
      value: 0.098039225
      objectReference: {fileID: 0}
    - target: {fileID: 1566485702796812479, guid: 4342fceea403c2640bb03b093b2fb9fc, type: 3}
      propertyPath: m_fontColor.g
      value: 0.098039225
      objectReference: {fileID: 0}
    - target: {fileID: 1566485702796812479, guid: 4342fceea403c2640bb03b093b2fb9fc, type: 3}
      propertyPath: m_fontColor.r
      value: 0.098039225
      objectReference: {fileID: 0}
    - target: {fileID: 1566485702796812479, guid: 4342fceea403c2640bb03b093b2fb9fc, type: 3}
      propertyPath: m_fontColor32.rgba
      value: 4279834905
      objectReference: {fileID: 0}
    - target: {fileID: 8768301996105117777, guid: 4342fceea403c2640bb03b093b2fb9fc, type: 3}
      propertyPath: m_Controller
      value: 
      objectReference: {fileID: 22100000, guid: b0091b96526d22d438b781f373378e7d, type: 2}
    m_RemovedComponents: []
  m_SourcePrefab: {fileID: 100100000, guid: 4342fceea403c2640bb03b093b2fb9fc, type: 3}
