{
    "name": "ICD.Engine.Networking.Editor.Tests",
    "rootNamespace": "ICD.Engine.Networking.Editor.Tests",
    "references": [
        "GUID:b70601d1d56837640828e4bee802efd8",
        "GUID:1cf9eed1d06fc2340833771b0d86036a",
        "GUID:aadeda40b579bc14ba9aac528ff6cfa0",
        "GUID:27619889b8ba8c24980f49ee34dbb44a",
        "GUID:0acc523941302664db1f4e527237feb3"
    ],
    "includePlatforms": [
        "Editor"
    ],
    "excludePlatforms": [],
    "allowUnsafeCode": false,
    "overrideReferences": false,
    "precompiledReferences": [],
    "autoReferenced": true,
    "defineConstraints": [
        "UNITY_INCLUDE_TESTS"
    ],
    "versionDefines": [],
    "noEngineReferences": false
}